%YAML 1.1
%TAG !u! tag:unity3d.com,2011:
--- !u!1045 &1
EditorBuildSettings:
  m_ObjectHideFlags: 0
  serializedVersion: 2
  m_Scenes:
  - enabled: 1
    path: Assets/Scenes/Menu version2.unity
    guid: 53a91b4c86c4c384f97b183751461f1a
  - enabled: 1
    path: Assets/Scenes/Menu version3.unity
    guid: 98ad712c9dae69d49832b56d875cbfef
  - enabled: 1
    path: Assets/Scenes/GamePlayScene.unity
    guid: c4a0bebddccc1ac48b2c7186904eefef
  - enabled: 1
    path: Assets/Scenes/Record Scene.unity
    guid: 9d78edea09b00b14b98bce6061df3d63
  - enabled: 1
    path: Assets/Scenes/Lobby.unity
    guid: 551934964289bd647ab3d589430c1ee3
  - enabled: 1
    path: Assets/Scenes/Room.unity
    guid: e74691c3cdc26b04790171e377d1bca6
  m_configObjects: {}
